plugins/simulator/netlist_simulator/test/netlists/toycipher/dump.vcd
$date
   Tue Jul 16 18:12:05 2019
$end
$version
  2018.1
$end
$timescale
  1ps
$end
$scope module ToyCipher_TB $end
$var wire 1 2 PLAINTEXT_0 $end
$var wire 1 3 PLAINTEXT_1 $end
$var wire 1 : PLAINTEXT_2 $end
$var wire 1 ; PLAINTEXT_3 $end
$var wire 1 < PLAINTEXT_4 $end
$var wire 1 = PLAINTEXT_5 $end
$var wire 1 > PLAINTEXT_6 $end
$var wire 1 ? PLAINTEXT_7 $end
$var wire 1 @ PLAINTEXT_8 $end
$var wire 1 A PLAINTEXT_9 $end
$var wire 1 4 PLAINTEXT_10 $end
$var wire 1 5 PLAINTEXT_11 $end
$var wire 1 6 PLAINTEXT_12 $end
$var wire 1 7 PLAINTEXT_13 $end
$var wire 1 8 PLAINTEXT_14 $end
$var wire 1 9 PLAINTEXT_15 $end
$var wire 1 " KEY_0 $end
$var wire 1 # KEY_1 $end
$var wire 1 * KEY_2 $end
$var wire 1 + KEY_3 $end
$var wire 1 , KEY_4 $end
$var wire 1 - KEY_5 $end
$var wire 1 . KEY_6 $end
$var wire 1 / KEY_7 $end
$var wire 1 0 KEY_8 $end
$var wire 1 1 KEY_9 $end
$var wire 1 $ KEY_10 $end
$var wire 1 % KEY_11 $end
$var wire 1 & KEY_12 $end
$var wire 1 ' KEY_13 $end
$var wire 1 ( KEY_14 $end
$var wire 1 ) KEY_15 $end
$var wire 1 D OUTPUT_0 $end
$var wire 1 E OUTPUT_1 $end
$var wire 1 L OUTPUT_2 $end
$var wire 1 M OUTPUT_3 $end
$var wire 1 N OUTPUT_4 $end
$var wire 1 O OUTPUT_5 $end
$var wire 1 P OUTPUT_6 $end
$var wire 1 Q OUTPUT_7 $end
$var wire 1 R OUTPUT_8 $end
$var wire 1 S OUTPUT_9 $end
$var wire 1 F OUTPUT_10 $end
$var wire 1 G OUTPUT_11 $end
$var wire 1 H OUTPUT_12 $end
$var wire 1 I OUTPUT_13 $end
$var wire 1 J OUTPUT_14 $end
$var wire 1 K OUTPUT_15 $end
$var wire 1 B START $end
$var wire 1 C DONE $end
$var wire 1 ! CLK $end
$scope module UUT $end
$var wire 1 ! CLK $end
$var wire 1 " KEY_0 $end
$var wire 1 # KEY_1 $end
$var wire 1 $ KEY_10 $end
$var wire 1 % KEY_11 $end
$var wire 1 & KEY_12 $end
$var wire 1 ' KEY_13 $end
$var wire 1 ( KEY_14 $end
$var wire 1 ) KEY_15 $end
$var wire 1 * KEY_2 $end
$var wire 1 + KEY_3 $end
$var wire 1 , KEY_4 $end
$var wire 1 - KEY_5 $end
$var wire 1 . KEY_6 $end
$var wire 1 / KEY_7 $end
$var wire 1 0 KEY_8 $end
$var wire 1 1 KEY_9 $end
$var wire 1 2 PLAINTEXT_0 $end
$var wire 1 3 PLAINTEXT_1 $end
$var wire 1 4 PLAINTEXT_10 $end
$var wire 1 5 PLAINTEXT_11 $end
$var wire 1 6 PLAINTEXT_12 $end
$var wire 1 7 PLAINTEXT_13 $end
$var wire 1 8 PLAINTEXT_14 $end
$var wire 1 9 PLAINTEXT_15 $end
$var wire 1 : PLAINTEXT_2 $end
$var wire 1 ; PLAINTEXT_3 $end
$var wire 1 < PLAINTEXT_4 $end
$var wire 1 = PLAINTEXT_5 $end
$var wire 1 > PLAINTEXT_6 $end
$var wire 1 ? PLAINTEXT_7 $end
$var wire 1 @ PLAINTEXT_8 $end
$var wire 1 A PLAINTEXT_9 $end
$var wire 1 B START $end
$var wire 1 C DONE $end
$var wire 1 D OUTPUT_0 $end
$var wire 1 E OUTPUT_1 $end
$var wire 1 F OUTPUT_10 $end
$var wire 1 G OUTPUT_11 $end
$var wire 1 H OUTPUT_12 $end
$var wire 1 I OUTPUT_13 $end
$var wire 1 J OUTPUT_14 $end
$var wire 1 K OUTPUT_15 $end
$var wire 1 L OUTPUT_2 $end
$var wire 1 M OUTPUT_3 $end
$var wire 1 N OUTPUT_4 $end
$var wire 1 O OUTPUT_5 $end
$var wire 1 P OUTPUT_6 $end
$var wire 1 Q OUTPUT_7 $end
$var wire 1 R OUTPUT_8 $end
$var wire 1 S OUTPUT_9 $end
$var wire 1 T CLK_IBUF $end
$var wire 1 U CLK_IBUF_BUFG $end
$var wire 1 V COUNTER_DONE $end
$var wire 1 W COUNTER_REG $end
$var wire 1 X COUNTER_REG_reg_0_0 $end
$var wire 1 Y COUNTER_REG_reg_0_1 $end
$var wire 1 Z COUNTER_REG_reg_0_2 $end
$var wire 1 [ COUNTER_REG_reg_0_3 $end
$var wire 1 \ FSM_onehot_STATE_REG_0_i_1_n_0 $end
$var wire 1 ] FSM_onehot_STATE_REG_1_i_1_n_0 $end
$var wire 1 ^ FSM_onehot_STATE_REG_2_i_1_n_0 $end
$var wire 1 _ FSM_onehot_STATE_REG_reg_n_0_1 $end
$var wire 1 ` FSM_onehot_STATE_REG_reg_n_0_2 $end
$var wire 1 a FSM_onehot_STATE_REG_reg_n_0_3 $end
$var wire 1 b KEY_IBUF_0 $end
$var wire 1 c KEY_IBUF_1 $end
$var wire 1 d KEY_IBUF_2 $end
$var wire 1 e KEY_IBUF_3 $end
$var wire 1 f KEY_IBUF_4 $end
$var wire 1 g KEY_IBUF_5 $end
$var wire 1 h KEY_IBUF_6 $end
$var wire 1 i KEY_IBUF_7 $end
$var wire 1 j KEY_IBUF_8 $end
$var wire 1 k KEY_IBUF_9 $end
$var wire 1 l KEY_IBUF_10 $end
$var wire 1 m KEY_IBUF_11 $end
$var wire 1 n KEY_IBUF_12 $end
$var wire 1 o KEY_IBUF_13 $end
$var wire 1 p KEY_IBUF_14 $end
$var wire 1 q KEY_IBUF_15 $end
$var wire 1 r OUTPUT_OBUF_0 $end
$var wire 1 s OUTPUT_OBUF_1 $end
$var wire 1 t OUTPUT_OBUF_2 $end
$var wire 1 u OUTPUT_OBUF_3 $end
$var wire 1 v OUTPUT_OBUF_4 $end
$var wire 1 w OUTPUT_OBUF_5 $end
$var wire 1 x OUTPUT_OBUF_6 $end
$var wire 1 y OUTPUT_OBUF_7 $end
$var wire 1 z OUTPUT_OBUF_8 $end
$var wire 1 { OUTPUT_OBUF_9 $end
$var wire 1 | OUTPUT_OBUF_10 $end
$var wire 1 } OUTPUT_OBUF_11 $end
$var wire 1 ~ OUTPUT_OBUF_12 $end
$var wire 1 !! OUTPUT_OBUF_13 $end
$var wire 1 "! OUTPUT_OBUF_14 $end
$var wire 1 #! OUTPUT_OBUF_15 $end
$var wire 1 $! PLAINTEXT_IBUF_0 $end
$var wire 1 %! PLAINTEXT_IBUF_1 $end
$var wire 1 &! PLAINTEXT_IBUF_2 $end
$var wire 1 '! PLAINTEXT_IBUF_3 $end
$var wire 1 (! PLAINTEXT_IBUF_4 $end
$var wire 1 )! PLAINTEXT_IBUF_5 $end
$var wire 1 *! PLAINTEXT_IBUF_6 $end
$var wire 1 +! PLAINTEXT_IBUF_7 $end
$var wire 1 ,! PLAINTEXT_IBUF_8 $end
$var wire 1 -! PLAINTEXT_IBUF_9 $end
$var wire 1 .! PLAINTEXT_IBUF_10 $end
$var wire 1 /! PLAINTEXT_IBUF_11 $end
$var wire 1 0! PLAINTEXT_IBUF_12 $end
$var wire 1 1! PLAINTEXT_IBUF_13 $end
$var wire 1 2! PLAINTEXT_IBUF_14 $end
$var wire 1 3! PLAINTEXT_IBUF_15 $end
$var wire 1 4! ROUND_AFTER_SBOX_0 $end
$var wire 1 5! ROUND_AFTER_SBOX_1 $end
$var wire 1 6! ROUND_AFTER_SBOX_2 $end
$var wire 1 7! ROUND_AFTER_SBOX_3 $end
$var wire 1 8! ROUND_AFTER_SBOX_4 $end
$var wire 1 9! ROUND_AFTER_SBOX_5 $end
$var wire 1 :! ROUND_AFTER_SBOX_6 $end
$var wire 1 ;! ROUND_AFTER_SBOX_7 $end
$var wire 1 <! ROUND_AFTER_SBOX_8 $end
$var wire 1 =! ROUND_AFTER_SBOX_9 $end
$var wire 1 >! ROUND_AFTER_SBOX_10 $end
$var wire 1 ?! ROUND_AFTER_SBOX_11 $end
$var wire 1 @! ROUND_AFTER_SBOX_12 $end
$var wire 1 A! ROUND_AFTER_SBOX_13 $end
$var wire 1 B! ROUND_AFTER_SBOX_14 $end
$var wire 1 C! ROUND_AFTER_SBOX_15 $end
$var wire 1 D! ROUND_REG_0_i_1_n_0 $end
$var wire 1 E! ROUND_REG_10_i_1_n_0 $end
$var wire 1 F! ROUND_REG_11_i_1_n_0 $end
$var wire 1 G! ROUND_REG_12_i_1_n_0 $end
$var wire 1 H! ROUND_REG_13_i_1_n_0 $end
$var wire 1 I! ROUND_REG_14_i_1_n_0 $end
$var wire 1 J! ROUND_REG_15_i_1_n_0 $end
$var wire 1 K! ROUND_REG_15_i_2_n_0 $end
$var wire 1 L! ROUND_REG_1_i_1_n_0 $end
$var wire 1 M! ROUND_REG_2_i_1_n_0 $end
$var wire 1 N! ROUND_REG_3_i_1_n_0 $end
$var wire 1 O! ROUND_REG_4_i_1_n_0 $end
$var wire 1 P! ROUND_REG_5_i_1_n_0 $end
$var wire 1 Q! ROUND_REG_6_i_1_n_0 $end
$var wire 1 R! ROUND_REG_7_i_1_n_0 $end
$var wire 1 S! ROUND_REG_8_i_1_n_0 $end
$var wire 1 T! ROUND_REG_9_i_1_n_0 $end
$var wire 1 U! ROUND_XOR_0 $end
$var wire 1 V! ROUND_XOR_1 $end
$var wire 1 W! ROUND_XOR_2 $end
$var wire 1 X! ROUND_XOR_3 $end
$var wire 1 Y! ROUND_XOR_4 $end
$var wire 1 Z! ROUND_XOR_5 $end
$var wire 1 [! ROUND_XOR_6 $end
$var wire 1 \! ROUND_XOR_7 $end
$var wire 1 ]! ROUND_XOR_8 $end
$var wire 1 ^! ROUND_XOR_9 $end
$var wire 1 _! ROUND_XOR_10 $end
$var wire 1 `! ROUND_XOR_11 $end
$var wire 1 a! ROUND_XOR_12 $end
$var wire 1 b! ROUND_XOR_13 $end
$var wire 1 c! ROUND_XOR_14 $end
$var wire 1 d! ROUND_XOR_15 $end
$var wire 1 e! START_IBUF $end
$var wire 1 f! plusOp_0 $end
$var wire 1 g! plusOp_1 $end
$var wire 1 h! plusOp_2 $end
$var wire 1 i! plusOp_3 $end
$upscope $end
$upscope $end
$enddefinitions $end
#0
$dumpvars
0!
0!!
0"
0"!
0#
0#!
0$
0$!
0%
0%!
0&
0&!
0'
0'!
0(
0(!
0)
0)!
0*
0*!
0+
0+!
0,
0,!
0-
0-!
0.
0.!
0/
0/!
00
00!
01
01!
02
02!
03
03!
04
04!
05
15!
06
06!
07
17!
08
08!
09
19!
0:
0:!
0;
1;!
0<
0<!
0=
1=!
0>
0>!
0?
0?!
0@
0@!
0A
0A!
0B
0B!
0C
1C!
0D
0D!
0E
0E!
0F
0F!
0G
0G!
0H
0H!
0I
0I!
0J
1J!
0K
0K!
0L
0L!
0M
0M!
0N
0N!
0O
0O!
0P
0P!
0Q
0Q!
0R
0R!
0S
0S!
0T
0T!
0U
0U!
0V
0V!
1W
0W!
0X
0X!
0Y
0Y!
0Z
0Z!
0[
0[!
1\
0\!
0]
0]!
0^
0^!
0_
0_!
0`
0`!
0a
0a!
0b
0b!
0c
0c!
0d
0d!
0e
0e!
0f
1f!
0g
0g!
0h
0h!
0i
0i!
0j
0k
0l
0m
0n
0o
0p
0q
0r
0s
0t
0u
0v
0w
0x
0y
0z
0{
0|
0}
0~
$end
#5000
1!
1T
1U
#10000
0!
1B
0T
0U
0\
1]
1e!
#15000
1!
1T
1U
#15100
1G!
1H!
1K!
1O!
1P!
1Q!
0W
1_
#20000
0!
0B
0T
0U
0e!
#25000
1!
1T
1U
#25100
1!!
1#!
09!
0;!
1A!
0C!
1H
0H!
1I
1K
0K!
1N
1O
1P
0P!
1R!
1X
1Y!
1Z!
1[!
1a!
1b!
1d!
0f!
1g!
1v
1w
1x
1~
#30000
0!
0T
0U
#35000
1!
1T
1U
#35100
0!!
0#!
1:!
1;!
1@!
0A!
1C!
1H!
0I
0K
1K!
1N!
0O
1Q
0R!
1T!
0X
1Y
0Z!
1\!
0b!
0d!
1f!
0w
1y
#40000
0!
0T
0U
#45000
1!
1T
1U
#45100
1!!
1#!
14!
07!
0:!
0=!
0@!
1A!
0C!
1D!
0G!
1I
1K
0K!
1M
0N!
0Q
0Q!
1R!
1S
0T!
1X
1X!
0\!
1^!
1b!
1d!
0f!
0g!
1h!
1u
0y
1{
#50000
0!
0T
0U
#55000
1!
1T
1U
#55100
0#!
05!
17!
18!
1=!
1@!
1C!
1D
1G!
0H
0K
1K!
1L!
0M
1N!
0O!
0P
1Q
1Q!
0S
1U!
0X
0X!
0Y
1Z
0[!
1\!
0^!
0a!
0d!
1f!
1r
0u
0x
1y
0{
0~
#60000
0!
0T
0U
#65000
1!
1T
1U
#65100
1#!
16!
08!
19!
1:!
0;!
0@!
0C!
1E
1H
0H!
1K
0K!
0L!
1M
0N
0N!
1P
1P!
1S!
1T!
1V!
1X
1X!
0Y!
1[!
1a!
1d!
0f!
1g!
1s
1u
0v
1x
1~
#70000
0!
0T
0U
#75000
1!
1T
1U
#75100
0!!
0#!
06!
09!
1>!
1?!
1@!
0A!
1C!
0E
1E!
0I
1I!
0K
1K!
0M
1N!
1O
0P!
1R
0R!
1S
0S!
0V!
0X
0X!
1Y
1Z!
1]!
1^!
0b!
0d!
1f!
0s
0u
1w
1z
1{
#80000
0!
0T
0U
#85000
1!
1T
1U
#85100
1"!
1#!
04!
07!
18!
1;!
1<!
0>!
0@!
1B!
0C!
0D!
0E!
1F
1F!
0G!
1H!
1J
1K
0K!
1L!
1M
1M!
0N!
0O
0Q
0R
1V
1X
1X!
0Z!
0\!
0]
0]!
1^
1_!
1c!
1d!
0f!
0g!
0h!
1i!
1u
0w
0y
0z
1|
#90000
0!
0T
0U
#95000
1!
1T
1U
#95100
1!!
0#!
14!
15!
16!
17!
0<!
0=!
1@!
1A!
1C!
0D
1D!
1E
0F
1G
1G!
0H
1I
0K
1K!
1L
0M
0M!
1N!
1O!
0Q!
1R!
1S!
0U!
1V!
1W!
0X
0X!
0Y
0Z
1[
0^
0_
0_!
1`
1`!
0a!
1b!
0d!
1f!
0r
1s
1t
0u
0|
1}
0~
#100000
0!
0T
0U
#105000
1!
1T
1U
#105100
1#!
05!
0:!
1=!
0A!
1C
0C!
1D
0D!
0F!
0G!
1H
0H!
0I!
0J!
1K
0K!
0L
0L!
1M
1N
0N!
0O!
0P
1Q
1R
0R!
0S!
0T!
1U!
0W!
1X!
1Y!
0[!
1\
1\!
1]!
0`
1a
1a!
1d!
1r
0t
1u
1v
0x
1y
1z
1~
#110000
0!
0T
0U
#115000
1!
1T
1U
#115100
0C
1J!
1W
0a
#120000
0!
1"
1#
1$
1$!
1%
1%!
1&
1&!
1'
1'!
1(
1(!
1)
1)!
1*
1*!
1+
1+!
1,
1,!
1-
1-!
1.
1.!
1/
1/!
10
10!
11
11!
12
12!
13
13!
14
04!
15
15!
16
17
18
19
1:
1;
0;!
1<
1<!
1=
1>
1>!
1?
1@
0@!
1A
0B!
1C!
1D!
1E!
1F!
1G!
1H!
1I!
1K!
1L!
1M!
1N!
1O!
1P!
1Q!
1R!
1S!
0T
1T!
0U
0U!
0V!
1W!
0X!
0Y!
1Z!
1[!
0\!
0]!
0^!
1_!
0`!
0a!
1b
0b!
1c
0c!
1d
0d!
1e
1f
1g
1h
1i
1j
1k
1l
1m
1n
1o
1p
1q
#125000
1!
1T
1U
#125100
06!
08!
19!
1;!
0<!
0>!
0?!
1F
1L
1O
1P
0V
0W!
0Z!
0[
0[!
0_!
0i!
1t
1w
1x
1|
#130000
0!
1B
0T
0U
0\
1]
1e!
#135000
1!
1T
1U
#135100
0D!
0E!
0F!
0I!
0L!
0M!
0N!
0R!
0S!
0T!
0W
1_
#140000
0!
0B
0T
0U
0e!
#145000
1!
1T
1U
#145100
0"!
07!
18!
1:!
0;!
1<!
1>!
1@!
1A!
0C!
0D
0E
1E!
0F
0G
0G!
0H!
0J
0K!
0L
1L!
0M
1M!
1N!
0Q
0R
1R!
0S
1T!
1U!
1V!
1W!
1X
1X!
1\!
1]!
1^!
1_!
1`!
1c!
0f!
1g!
0r
0s
0t
0u
0y
0z
0{
0|
0}
#150000
0!
0T
0U
#155000
1!
1T
1U
#155100
0!!
0#!
14!
05!
17!
08!
0:!
1;!
0=!
0>!
1?!
0A!
1B!
1D!
1E
0E!
1F
1F!
1G!
0H
1H!
0I
1I!
0K
1L
0L!
1M
0O!
1Q
0Q!
0R!
1S
0T!
0V!
0W!
0X
0X!
1Y
0\!
0^!
0_!
1a!
1b!
1d!
1f!
1s
1t
1u
1y
1{
1|
0~
#160000
0!
0T
0U
#165000
1!
1T
1U
#165100
1!!
1"!
04!
16!
07!
09!
1:!
0<!
1=!
1>!
0?!
1C!
1D
0D!
0E
1E!
0F
1G
0G!
1H
1I
0I!
1J
1K!
0M!
0N
0P
0P!
0Q
1Q!
0S
1S!
1T!
0U!
1V!
1X
1Y!
1[!
1\!
1^!
1_!
0`!
0a!
0b!
0c!
0f!
0g!
1h!
1r
0s
0v
0x
0y
0{
0|
1}
1~
#170000
0!
0T
0U
#175000
1!
1T
1U
#175100
0"!
1#!
14!
15!
06!
17!
19!
0>!
1A!
0C!
0D
1D!
0E!
1F
1G!
0H
0J
1K
0K!
0L
0O
1O!
1P
1P!
1R
1R!
1S
0S!
1U!
1W!
0X
0Y
1Z
1Z!
0[!
0]!
0^!
0_!
1a!
1c!
0d!
1f!
0r
0t
0w
1x
1z
1{
1|
0~
#180000
0!
0T
0U
#185000
1!
1T
1U
#185100
0#!
16!
0:!
0=!
1>!
0@!
0A!
0B!
1D
1E!
0F
0F!
1H
0K
1N
0N!
1O
1Q
0Q!
0R
0R!
1S!
0T!
0U!
1X
0Y!
0Z!
0\!
1]!
1_!
0a!
1d!
0f!
1g!
1r
1v
1w
1y
0z
0|
1~
#190000
0!
0T
0U
#195000
1!
1T
1U
#195100
04!
05!
1:!
0;!
0>!
1?!
0D!
0E!
1F
0G
0H!
1I!
0M
0O!
0P
0Q
1R
0S
1T!
0X
1X!
1Y
1[!
1\!
0]!
1^!
0_!
1`!
1f!
0u
0x
0y
1z
0{
1|
0}
#200000
0!
0T
0U
#205000
1!
1T
1U
#205100
0!!
1"!
15!
06!
07!
09!
1;!
1<!
0?!
1A!
1B!
1C!
0D
0F
1F!
0G!
1H!
0I
0I!
1J
1K!
1M!
0N
1O!
0P!
1R!
1S
0S!
1U!
1V
1X
1Y!
0]
1^
0^!
1_!
1b!
0c!
0f!
0g!
0h!
1i!
0r
0v
1{
0|
#210000
0!
0T
0U
#215000
1!
1T
1U
#215100
1!!
0"!
1#!
14!
05!
16!
17!
18!
0:!
0;!
0<!
1>!
1@!
0C!
1D!
1E!
1G
1G!
0H
0H!
1I
0J
1K
0K!
1L
1L!
0M!
1N
1N!
0O
0O!
1Q
0R
1S!
0T!
0W!
0X
0Y
0Y!
0Z
1Z!
1[
0\!
1]!
0^
0_
1`
0`!
1a!
0b!
1c!
0d!
1f!
1t
1v
0w
1y
0z
1}
0~
#220000
0!
0T
0U
#225000
1!
1T
1U
#225100
0!!
0#!
04!
15!
08!
0>!
0@!
0A!
1C
1C!
1D
1E
1F
1H
1H!
0I
1I!
0J!
0K
1K!
0L
1M
1M!
0N
1O!
1P!
1Q!
1R
0S
1T!
0U!
0V!
1W!
0X!
1Y!
1\
0]!
1^!
0_!
0`
1a
0a!
1b!
1d!
1r
1s
0t
1u
0v
1z
0{
1|
1~
#230000
0!
0T
0U
#235000
1!
1T
1U
#235100
0C
1J!
1W
0a
#240000
0!
0"
0#
0$
0$!
0%
0%!
0&
0&!
0'
0'!
0(
0(!
0)
0)!
0*
0*!
0+
0+!
0,
0,!
0-
0-!
0.
0.!
0/
0/!
00
00!
01
01!
02
02!
03
03!
04
14!
05
05!
06
07
08
18!
09
19!
0:
1:!
0;
0<
1<!
0=
0>
1>!
0?
0@
1@!
0A
0B!
0D!
0E!
0F!
0G!
0H!
0I!
0K!
0L!
0M!
0N!
0O!
0P!
0Q!
0R!
0S!
0T
0T!
0U
1U!
1V!
0W!
1X!
0Y!
0Z!
0[!
1\!
1]!
0^!
1_!
1`!
1a!
0b
0b!
0c
0c!
0d
0d!
0e
0f
0g
0h
0i
0j
0k
0l
0m
0n
0o
0p
0q
#245000
1!
1T
1U
#245100
04!
15!
06!
08!
0:!
1;!
0<!
1=!
0>!
0@!
0D
0E
0F
0G
0H
0M
0Q
0R
0U!
0V
0V!
0X!
0[
0\!
0]!
0_!
0`!
0a!
0i!
0r
0s
0u
0y
0z
0|
0}
0~
#250000
0!
1B
0T
0U
0\
1]
1e!
#255000
1!
1T
1U
#255100
1G!
1H!
1K!
1O!
1P!
1Q!
0W
1_
#260000
0!
0B
0T
0U
0e!
#265000
1!
1T
1U
#265100
1!!
1#!
09!
0;!
1A!
0C!
1H
0H!
1I
1K
0K!
1N
1O
1P
0P!
1R!
1X
1Y!
1Z!
1[!
1a!
1b!
1d!
0f!
1g!
1v
1w
1x
1~
#270000
0!
0T
0U
#275000
1!
1T
1U
#275100
0!!
0#!
1:!
1;!
1@!
0A!
1C!
1H!
0I
0K
1K!
1N!
0O
1Q
0R!
1T!
0X
1Y
0Z!
1\!
0b!
0d!
1f!
0w
1y
#280000
0!
0T
0U
#285000
1!
1T
1U
#285100
1!!
1#!
14!
07!
0:!
0=!
0@!
1A!
0C!
1D!
0G!
1I
1K
0K!
1M
0N!
0Q
0Q!
1R!
1S
0T!
1X
1X!
0\!
1^!
1b!
1d!
0f!
0g!
1h!
1u
0y
1{
