plugins/netlist_simulator/test/netlists/counter/dump.vcd
$date
   Wed Jun 26 15:36:43 2019
$end
$version
  2018.2
$end
$timescale
  1ps
$end
$scope module Counter2_VHDL_TB $end
$var wire 1 " Clock_enable_B $end
$var wire 1 ! Clock $end
$var wire 1 # Reset $end
$var wire 1 $ Output_0 $end
$var wire 1 % Output_1 $end
$var wire 1 & Output_2 $end
$var wire 1 ' Output_3 $end
$scope module UUT $end
$var wire 1 ! Clock $end
$var wire 1 " Clock_enable_B $end
$var wire 1 # Reset $end
$var wire 1 $ Output_0 $end
$var wire 1 % Output_1 $end
$var wire 1 & Output_2 $end
$var wire 1 ' Output_3 $end
$var wire 1 ( Clock_IBUF $end
$var wire 1 ) Clock_IBUF_BUFG $end
$var wire 1 * Clock_enable_B_IBUF $end
$var wire 1 + Output_OBUF_0 $end
$var wire 1 , Output_OBUF_1 $end
$var wire 1 - Output_OBUF_2 $end
$var wire 1 . Output_OBUF_3 $end
$var wire 1 / Reset_IBUF $end
$var wire 1 0 sel $end
$var wire 1 1 temp_0_i_2_n_0 $end
$var wire 1 2 temp_1_i_1_n_0 $end
$var wire 1 3 temp_2_i_1_n_0 $end
$var wire 1 4 temp_3_i_1_n_0 $end
$upscope $end
$upscope $end
$enddefinitions $end
#0
$dumpvars
0!
1"
0#
0$
0%
0&
0'
0(
0)
1*
0+
0,
0-
0.
0/
00
01
02
03
14
$end
#5000
1!
1(
1)
#10000
0!
0(
0)
#15000
1!
1(
1)
#20000
0!
0(
0)
#25000
1!
1(
1)
#30000
0!
0(
0)
#35000
1!
1(
1)
#40000
0!
0"
0(
0)
0*
10
#45000
1!
1(
1)
#45100
1'
1.
13
04
#50000
0!
0(
0)
#55000
1!
1(
1)
#55100
1&
0'
1-
0.
14
#60000
0!
0(
0)
#65000
1!
1(
1)
#65100
1'
1.
12
03
04
#70000
0!
0(
0)
#75000
1!
1(
1)
#75100
1%
0&
0'
1,
0-
0.
14
#80000
0!
0(
0)
#85000
1!
1(
1)
#85100
1'
1.
13
04
#90000
0!
0(
0)
#95000
1!
1(
1)
#95100
1&
0'
1-
0.
14
#100000
0!
0(
0)
#105000
1!
1(
1)
#105100
1'
1.
11
02
03
04
#110000
0!
0(
0)
#115000
1!
1(
1)
#115100
1$
0%
0&
0'
1+
0,
0-
0.
14
#120000
0!
0(
0)
#125000
1!
1(
1)
#125100
1'
1.
01
04
#130000
0!
0(
0)
#135000
1!
1(
1)
#135100
0$
0'
0+
0.
14
#140000
0!
0(
0)
#145000
1!
1(
1)
#145100
1'
1.
13
04
#150000
0!
1#
0(
0)
1/
#150100
0'
0.
03
14
#155000
1!
1(
1)
#160000
0!
0(
0)
#165000
1!
1(
1)
#170000
0!
0#
0(
0)
0/
#175000
1!
1(
1)
#175100
1'
1.
13
04
#180000
0!
0(
0)
#185000
1!
1(
1)
#185100
1&
0'
1-
0.
14
#190000
0!
0(
0)
#195000
1!
1(
1)
#195100
1'
1.
12
03
04
#200000
0!
0(
0)
#205000
1!
1(
1)
#205100
1%
0&
0'
1,
0-
0.
14
#210000
0!
0(
0)
#215000
1!
1(
1)
#215100
1'
1.
13
04
#220000
0!
0(
0)
#225000
1!
1(
1)
#225100
1&
0'
1-
0.
14
#230000
0!
0(
0)
#235000
1!
1(
1)
#235100
1'
1.
11
02
03
04
#240000
0!
1"
0(
0)
1*
00
#245000
1!
1(
1)
#250000
0!
0(
0)
#255000
1!
1(
1)
#260000
0!
0(
0)
#263000
1#
1/
#263100
0%
0&
0'
0,
0-
0.
01
14
