plugins/netlist_simulator/test/netlists/dsp/trace.vcd
$date
   Mon Sep 13 12:09:58 2021
$end
$version
  2020.2
$end
$timescale
  1ps
$end
$scope module DSP_TB $end
$scope module UUT $end
$var wire 1 ! CI $end
$var wire 1 " ADDSUBBOT $end
$var wire 1 # OLOADBOT $end
$var wire 1 $ OHOLDBOT $end
$var wire 1 % DHOLD $end
$var wire 1 & ADDSUBTOP $end
$var wire 1 ' BHOLD $end
$var wire 1 ( AHOLD $end
$var wire 1 ) D_5 $end
$var wire 1 * IRSTBOT $end
$var wire 1 + D_7 $end
$var wire 1 , IRSTTOP $end
$var wire 1 - CE $end
$var wire 1 . ORSTTOP $end
$var wire 1 / CLK $end
$var wire 1 0 OHOLDTOP $end
$var wire 1 1 D_0 $end
$var wire 1 2 D_1 $end
$var wire 1 3 A_2 $end
$var wire 1 4 D_2 $end
$var wire 1 5 D_3 $end
$var wire 1 6 D_4 $end
$var wire 1 7 D_6 $end
$var wire 1 8 D_8 $end
$var wire 1 9 D_9 $end
$var wire 1 : D_10 $end
$var wire 1 ; D_11 $end
$var wire 1 < D_12 $end
$var wire 1 = D_13 $end
$var wire 1 > D_14 $end
$var wire 1 ? D_15 $end
$var wire 1 @ C_13 $end
$var wire 1 A C_14 $end
$var wire 1 B C_15 $end
$var wire 1 C ORSTBOT $end
$var wire 1 D B_0 $end
$var wire 1 E A_0 $end
$var wire 1 F A_1 $end
$var wire 1 G A_3 $end
$var wire 1 H A_4 $end
$var wire 1 I A_5 $end
$var wire 1 J A_6 $end
$var wire 1 K A_7 $end
$var wire 1 L A_8 $end
$var wire 1 M A_9 $end
$var wire 1 N A_10 $end
$var wire 1 O A_11 $end
$var wire 1 P A_12 $end
$var wire 1 Q A_13 $end
$var wire 1 R A_14 $end
$var wire 1 S A_15 $end
$var wire 1 T CHOLD $end
$var wire 1 U OLOADTOP $end
$var wire 1 V C_0 $end
$var wire 1 W C_1 $end
$var wire 1 X C_2 $end
$var wire 1 Y C_3 $end
$var wire 1 Z C_4 $end
$var wire 1 [ C_5 $end
$var wire 1 \ C_6 $end
$var wire 1 ] C_7 $end
$var wire 1 ^ C_8 $end
$var wire 1 _ C_9 $end
$var wire 1 ` C_10 $end
$var wire 1 a C_11 $end
$var wire 1 b C_12 $end
$var wire 1 c B_1 $end
$var wire 1 d B_2 $end
$var wire 1 e B_3 $end
$var wire 1 f B_4 $end
$var wire 1 g B_5 $end
$var wire 1 h B_6 $end
$var wire 1 i B_7 $end
$var wire 1 j B_8 $end
$var wire 1 k B_9 $end
$var wire 1 l B_10 $end
$var wire 1 m B_11 $end
$var wire 1 n B_12 $end
$var wire 1 o B_13 $end
$var wire 1 p B_14 $end
$var wire 1 q B_15 $end
$var wire 1 r CO $end
$var wire 1 s O_13 $end
$var wire 1 t O_14 $end
$var wire 1 u O_31 $end
$var wire 1 v O_30 $end
$var wire 1 w O_0 $end
$var wire 1 x O_1 $end
$var wire 1 y O_2 $end
$var wire 1 z O_3 $end
$var wire 1 { O_4 $end
$var wire 1 | O_5 $end
$var wire 1 } O_6 $end
$var wire 1 ~ O_7 $end
$var wire 1 !! O_8 $end
$var wire 1 "! O_9 $end
$var wire 1 #! O_10 $end
$var wire 1 $! O_11 $end
$var wire 1 %! O_12 $end
$var wire 1 &! O_15 $end
$var wire 1 '! O_16 $end
$var wire 1 (! O_17 $end
$var wire 1 )! O_18 $end
$var wire 1 *! O_19 $end
$var wire 1 +! O_20 $end
$var wire 1 ,! O_21 $end
$var wire 1 -! O_22 $end
$var wire 1 .! O_23 $end
$var wire 1 /! O_24 $end
$var wire 1 0! O_25 $end
$var wire 1 1! O_26 $end
$var wire 1 2! O_27 $end
$var wire 1 3! O_28 $end
$var wire 1 4! O_29 $end
$upscope $end
$upscope $end
$enddefinitions $end
#0
$dumpvars
0!
x!!
0"
x"!
0#
x#!
0$
x$!
0%
x%!
0&
x&!
0'
x'!
0(
x(!
0)
x)!
0*
x*!
1+
x+!
0,
x,!
0-
x-!
0.
x.!
0/
x/!
00
x0!
01
x1!
12
x2!
03
x3!
04
x4!
05
06
17
08
19
0:
1;
0<
1=
0>
1?
0@
0A
0B
0C
0D
0E
1F
1G
0H
0I
0J
0K
0L
1M
0N
1O
1P
0Q
0R
0S
0T
0U
1V
1W
0X
0Y
1Z
0[
0\
0]
1^
0_
0`
0a
1b
1c
0d
0e
1f
0g
1h
1i
0j
0k
1l
0m
0n
0o
0p
0q
xr
xs
xt
xu
xv
xw
xx
xy
xz
x{
x|
x}
x~
$end
#5000
1/
#10000
0!!
0"!
0#!
0$!
0%!
0&!
1*
1,
1.
0/
1C
0s
0t
0w
0x
0y
0z
0{
0|
0}
0~
#11000
0'!
0(!
0)!
0*!
0+!
0,!
0-!
0.!
0/!
00!
01!
02!
03!
04!
0r
0u
0v
#15000
1/
#20000
0/
#25000
1/
#30000
0/
#35000
1/
#40000
0/
#45000
1/
#50000
0/
#55000
1/
#60000
0/
#65000
1/
#70000
0/
#75000
1/
#80000
0/
#85000
1/
#90000
0/
#95000
1/
#100000
0/
#105000
1/
#110000
1-
0/
#115000
1/
#120000
0/
#125000
1/
#130000
0/
#135000
1/
#140000
0/
#145000
1/
#150000
0/
#155000
1/
#160000
0/
#165000
1/
#170000
0/
#175000
1/
#180000
0/
#185000
1/
#190000
0/
#195000
1/
#200000
0/
#205000
1/
#210000
0*
0,
0.
0/
0C
#215000
1/
xw
#216000
1*!
1,!
1-!
#220000
0/
#225000
1!!
1"!
1#!
1$!
1&!
1/
1s
1y
1{
1~
#230000
0/
#235000
1/
#240000
0/
#245000
1/
#250000
0/
#255000
1/
#260000
0/
#265000
1/
#270000
0/
#275000
1/
#280000
0/
#285000
1/
#290000
0/
#295000
1/
#300000
0/
#305000
1/
#310000
1(
0/
#315000
1/
#320000
0/
#325000
1/
#330000
0/
#335000
1/
#340000
0/
#345000
1/
#350000
0/
#355000
1/
#360000
1$
0/
10
#365000
1/
#370000
0/
#375000
1/
#380000
0/
#385000
1/
#390000
0/
#395000
1/
#400000
0/
#405000
1/
#410000
0$
0(
0/
00
#415000
1/
#420000
0/
#425000
1/
#430000
0/
#435000
1/
#440000
0/
#445000
1/
#450000
0/
#455000
1/
#460000
1&
0/
1U
1r
#465000
1/
#470000
0/
#475000
1/
#480000
0/
#485000
1/
#490000
0/
#495000
1/
#500000
0/
#505000
1/
#510000
1"
0&
0/
0U
0r
#515000
0"!
0$!
1/
xx
xy
xz
x{
1|
1}
#520000
0/
#525000
1/
#530000
0/
#535000
1/
#540000
0/
#545000
1/
#550000
0/
#555000
1/
#560000
1.
0/
#565000
1/
#570000
0/
#575000
1/
#580000
0/
#585000
1/
#590000
0/
#595000
1/
#600000
0/
#605000
1/
#610000
0"
0.
0/
#615000
1"!
1$!
1/
0x
1y
0z
1{
0|
0}
#620000
0/
#625000
1/
#630000
0/
#635000
1/
#640000
0/
#645000
1/
#650000
0/
#655000
1/
#660000
1,
0/
1T
#661000
0*!
0,!
0-!
#665000
1/
#670000
0/
#675000
1/
#680000
0/
#685000
1/
#690000
0/
#695000
1/
#700000
0/
#705000
1/
#710000
0)
0+
0,
0/
11
12
03
14
05
06
07
18
09
0:
0;
0<
0=
0>
0?
1@
0A
0B
0D
0E
0F
0G
0H
1I
1J
0K
0L
1M
1N
0O
0P
0Q
0R
0S
0T
1V
1W
0X
1Y
0Z
1[
1\
1]
0^
0_
0`
0a
1b
1c
1d
1e
1f
0g
1h
0i
1j
0k
0l
1m
0n
1o
0p
1q
#715000
1/
#716000
1(!
1)!
1+!
1,!
1-!
1.!
x/!
x0!
x1!
x2!
x3!
x4!
xr
xu
xv
#720000
0/
#725000
0!!
0#!
1/
xx
0{
1|
1}
0~
#730000
0/
#735000
1/
#740000
0/
#745000
1/
#750000
0/
#755000
1/
#760000
1#
0/
1U
#765000
1!!
0"!
0$!
0&!
1/
0s
1w
1x
0|
0}
#770000
0/
#775000
1/
#780000
0/
#785000
1/
#790000
0/
#795000
1/
#800000
0/
#805000
1/
#810000
0#
0/
0U
#815000
0!!
1"!
1$!
1&!
1/
1s
xw
xx
1|
1}
#820000
0/
#825000
1/
#830000
0/
#835000
1/
#840000
0/
#845000
1/
#850000
0/
#855000
1/
#860000
1&
0/
#865000
1/
#870000
0/
#875000
1/
#880000
0/
#885000
1/
#890000
0/
#895000
1/
#900000
0/
#905000
1/
#910000
1"
0&
0/
#915000
1!!
1#!
0$!
1%!
0&!
1/
0s
1t
0x
0y
1z
0}
1~
#920000
0/
#925000
1/
#930000
0/
#935000
1/
#940000
0/
#945000
1/
#950000
0/
#955000
1/
#960000
0"
0/
#965000
0!!
0#!
1$!
0%!
1&!
1/
1s
0t
xx
1y
0z
1}
0~
