plugins/netlist_simulator/test/netlists/dsp/trace.vcd
$version Generated by VerilatedVcd $end
$date Fri Jul 23 15:53:03 2021 $end
$timescale 1ps $end

 $scope module TOP $end
  $var wire  1 $ ADDSUBBOT $end
  $var wire  1 ( ADDSUBTOP $end
  $var wire  1 * AHOLD $end
  $var wire  1 G A_0 $end
  $var wire  1 H A_1 $end
  $var wire  1 P A_10 $end
  $var wire  1 Q A_11 $end
  $var wire  1 R A_12 $end
  $var wire  1 S A_13 $end
  $var wire  1 T A_14 $end
  $var wire  1 U A_15 $end
  $var wire  1 5 A_2 $end
  $var wire  1 I A_3 $end
  $var wire  1 J A_4 $end
  $var wire  1 K A_5 $end
  $var wire  1 L A_6 $end
  $var wire  1 M A_7 $end
  $var wire  1 N A_8 $end
  $var wire  1 O A_9 $end
  $var wire  1 ) BHOLD $end
  $var wire  1 F B_0 $end
  $var wire  1 e B_1 $end
  $var wire  1 n B_10 $end
  $var wire  1 o B_11 $end
  $var wire  1 p B_12 $end
  $var wire  1 q B_13 $end
  $var wire  1 r B_14 $end
  $var wire  1 s B_15 $end
  $var wire  1 f B_2 $end
  $var wire  1 g B_3 $end
  $var wire  1 h B_4 $end
  $var wire  1 i B_5 $end
  $var wire  1 j B_6 $end
  $var wire  1 k B_7 $end
  $var wire  1 l B_8 $end
  $var wire  1 m B_9 $end
  $var wire  1 / CE $end
  $var wire  1 V CHOLD $end
  $var wire  1 # CI $end
  $var wire  1 1 CLK $end
  $var wire  1 t CO $end
  $var wire  1 X C_0 $end
  $var wire  1 Y C_1 $end
  $var wire  1 b C_10 $end
  $var wire  1 c C_11 $end
  $var wire  1 d C_12 $end
  $var wire  1 B C_13 $end
  $var wire  1 C C_14 $end
  $var wire  1 D C_15 $end
  $var wire  1 Z C_2 $end
  $var wire  1 [ C_3 $end
  $var wire  1 \ C_4 $end
  $var wire  1 ] C_5 $end
  $var wire  1 ^ C_6 $end
  $var wire  1 _ C_7 $end
  $var wire  1 ` C_8 $end
  $var wire  1 a C_9 $end
  $var wire  1 ' DHOLD $end
  $var wire  1 3 D_0 $end
  $var wire  1 4 D_1 $end
  $var wire  1 < D_10 $end
  $var wire  1 = D_11 $end
  $var wire  1 > D_12 $end
  $var wire  1 ? D_13 $end
  $var wire  1 @ D_14 $end
  $var wire  1 A D_15 $end
  $var wire  1 6 D_2 $end
  $var wire  1 7 D_3 $end
  $var wire  1 8 D_4 $end
  $var wire  1 + D_5 $end
  $var wire  1 9 D_6 $end
  $var wire  1 - D_7 $end
  $var wire  1 : D_8 $end
  $var wire  1 ; D_9 $end
  $var wire  1 , IRSTBOT $end
  $var wire  1 . IRSTTOP $end
  $var wire  1 & OHOLDBOT $end
  $var wire  1 2 OHOLDTOP $end
  $var wire  1 % OLOADBOT $end
  $var wire  1 W OLOADTOP $end
  $var wire  1 E ORSTBOT $end
  $var wire  1 0 ORSTTOP $end
  $var wire  1 y O_0 $end
  $var wire  1 z O_1 $end
  $var wire  1 %! O_10 $end
  $var wire  1 &! O_11 $end
  $var wire  1 '! O_12 $end
  $var wire  1 u O_13 $end
  $var wire  1 v O_14 $end
  $var wire  1 (! O_15 $end
  $var wire  1 )! O_16 $end
  $var wire  1 *! O_17 $end
  $var wire  1 +! O_18 $end
  $var wire  1 ,! O_19 $end
  $var wire  1 { O_2 $end
  $var wire  1 -! O_20 $end
  $var wire  1 .! O_21 $end
  $var wire  1 /! O_22 $end
  $var wire  1 0! O_23 $end
  $var wire  1 1! O_24 $end
  $var wire  1 2! O_25 $end
  $var wire  1 3! O_26 $end
  $var wire  1 4! O_27 $end
  $var wire  1 5! O_28 $end
  $var wire  1 6! O_29 $end
  $var wire  1 | O_3 $end
  $var wire  1 x O_30 $end
  $var wire  1 w O_31 $end
  $var wire  1 } O_4 $end
  $var wire  1 ~ O_5 $end
  $var wire  1 !! O_6 $end
  $var wire  1 "! O_7 $end
  $var wire  1 #! O_8 $end
  $var wire  1 $! O_9 $end
  $scope module dsp_netlist $end
   $var wire  1 $ ADDSUBBOT $end
   $var wire  1 ( ADDSUBTOP $end
   $var wire  1 * AHOLD $end
   $var wire  1 G A_0 $end
   $var wire  1 H A_1 $end
   $var wire  1 P A_10 $end
   $var wire  1 Q A_11 $end
   $var wire  1 R A_12 $end
   $var wire  1 S A_13 $end
   $var wire  1 T A_14 $end
   $var wire  1 U A_15 $end
   $var wire  1 5 A_2 $end
   $var wire  1 I A_3 $end
   $var wire  1 J A_4 $end
   $var wire  1 K A_5 $end
   $var wire  1 L A_6 $end
   $var wire  1 M A_7 $end
   $var wire  1 N A_8 $end
   $var wire  1 O A_9 $end
   $var wire  1 ) BHOLD $end
   $var wire  1 F B_0 $end
   $var wire  1 e B_1 $end
   $var wire  1 n B_10 $end
   $var wire  1 o B_11 $end
   $var wire  1 p B_12 $end
   $var wire  1 q B_13 $end
   $var wire  1 r B_14 $end
   $var wire  1 s B_15 $end
   $var wire  1 f B_2 $end
   $var wire  1 g B_3 $end
   $var wire  1 h B_4 $end
   $var wire  1 i B_5 $end
   $var wire  1 j B_6 $end
   $var wire  1 k B_7 $end
   $var wire  1 l B_8 $end
   $var wire  1 m B_9 $end
   $var wire  1 / CE $end
   $var wire  1 V CHOLD $end
   $var wire  1 # CI $end
   $var wire  1 1 CLK $end
   $var wire  1 t CO $end
   $var wire  1 X C_0 $end
   $var wire  1 Y C_1 $end
   $var wire  1 b C_10 $end
   $var wire  1 c C_11 $end
   $var wire  1 d C_12 $end
   $var wire  1 B C_13 $end
   $var wire  1 C C_14 $end
   $var wire  1 D C_15 $end
   $var wire  1 Z C_2 $end
   $var wire  1 [ C_3 $end
   $var wire  1 \ C_4 $end
   $var wire  1 ] C_5 $end
   $var wire  1 ^ C_6 $end
   $var wire  1 _ C_7 $end
   $var wire  1 ` C_8 $end
   $var wire  1 a C_9 $end
   $var wire  1 ' DHOLD $end
   $var wire  1 3 D_0 $end
   $var wire  1 4 D_1 $end
   $var wire  1 < D_10 $end
   $var wire  1 = D_11 $end
   $var wire  1 > D_12 $end
   $var wire  1 ? D_13 $end
   $var wire  1 @ D_14 $end
   $var wire  1 A D_15 $end
   $var wire  1 6 D_2 $end
   $var wire  1 7 D_3 $end
   $var wire  1 8 D_4 $end
   $var wire  1 + D_5 $end
   $var wire  1 9 D_6 $end
   $var wire  1 - D_7 $end
   $var wire  1 : D_8 $end
   $var wire  1 ; D_9 $end
   $var wire  1 , IRSTBOT $end
   $var wire  1 . IRSTTOP $end
   $var wire  1 & OHOLDBOT $end
   $var wire  1 2 OHOLDTOP $end
   $var wire  1 % OLOADBOT $end
   $var wire  1 W OLOADTOP $end
   $var wire  1 E ORSTBOT $end
   $var wire  1 0 ORSTTOP $end
   $var wire  1 y O_0 $end
   $var wire  1 z O_1 $end
   $var wire  1 %! O_10 $end
   $var wire  1 &! O_11 $end
   $var wire  1 '! O_12 $end
   $var wire  1 u O_13 $end
   $var wire  1 v O_14 $end
   $var wire  1 (! O_15 $end
   $var wire  1 )! O_16 $end
   $var wire  1 *! O_17 $end
   $var wire  1 +! O_18 $end
   $var wire  1 ,! O_19 $end
   $var wire  1 { O_2 $end
   $var wire  1 -! O_20 $end
   $var wire  1 .! O_21 $end
   $var wire  1 /! O_22 $end
   $var wire  1 0! O_23 $end
   $var wire  1 1! O_24 $end
   $var wire  1 2! O_25 $end
   $var wire  1 3! O_26 $end
   $var wire  1 4! O_27 $end
   $var wire  1 5! O_28 $end
   $var wire  1 6! O_29 $end
   $var wire  1 | O_3 $end
   $var wire  1 x O_30 $end
   $var wire  1 w O_31 $end
   $var wire  1 } O_4 $end
   $var wire  1 ~ O_5 $end
   $var wire  1 !! O_6 $end
   $var wire  1 "! O_7 $end
   $var wire  1 #! O_8 $end
   $var wire  1 $! O_9 $end
  $upscope $end
 $upscope $end
$enddefinitions $end


#0
0#
0$
0%
0&
0'
0(
0)
0*
0+
0,
1-
0.
0/
00
01
02
03
14
05
06
07
08
19
0:
1;
0<
1=
0>
1?
0@
1A
0B
0C
0D
0E
0F
0G
1H
1I
0J
0K
0L
0M
0N
1O
0P
1Q
1R
0S
0T
0U
0V
0W
1X
1Y
0Z
0[
1\
0]
0^
0_
1`
0a
0b
0c
1d
1e
0f
0g
1h
0i
1j
1k
0l
0m
1n
0o
0p
0q
0r
0s
0t
0u
0v
0w
0x
0y
0z
0{
0|
0}
0~
0!!
0"!
0#!
0$!
0%!
0&!
0'!
0(!
0)!
0*!
0+!
0,!
0-!
0.!
0/!
00!
01!
02!
03!
04!
05!
06!
#0
11
#5
01
#8
#10
11
#15
01
#18
1,
1.
10
1E
#20
11
#25
01
#28
#30
11
#35
01
#38
#40
11
#45
01
#48
#50
11
#55
01
#58
#60
11
#65
01
#68
#70
11
#75
01
#78
#80
11
#85
01
#88
#90
11
#95
01
#98
#100
11
#105
01
#108
#110
11
#115
01
#118
1/
#120
11
#125
01
#128
#130
11
#135
01
#138
#140
11
#145
01
#148
#150
11
#155
01
#158
#160
11
#165
01
#168
#170
11
#175
01
#178
#180
11
#185
01
#188
#190
11
#195
01
#198
#200
11
#205
01
#208
#210
11
#215
01
#218
0,
0.
00
0E
#220
11
1y
1,!
1.!
1/!
#225
01
#228
#230
11
1u
1{
1}
1"!
1#!
1$!
1%!
1&!
1(!
#235
01
#238
#240
11
#245
01
#248
#250
11
#255
01
#258
#260
11
#265
01
#268
#270
11
#275
01
#278
#280
11
#285
01
#288
#290
11
#295
01
#298
#300
11
#305
01
#308
#310
11
#315
01
#318
1*
#320
11
#325
01
#328
#330
11
#335
01
#338
#340
11
#345
01
#348
#350
11
#355
01
#358
#360
11
#365
01
#368
1&
12
#370
11
#375
01
#378
#380
11
#385
01
#388
#390
11
#395
01
#398
#400
11
#405
01
#408
#410
11
#415
01
#418
0&
0*
02
#420
11
#425
01
#428
#430
11
#435
01
#438
#440
11
#445
01
#448
#450
11
#455
01
#458
#460
11
#465
01
#468
1(
1W
1t
#470
11
#475
01
#478
#480
11
#485
01
#488
#490
11
#495
01
#498
#500
11
#505
01
#508
#510
11
#515
01
#518
1$
0(
0W
0t
#520
11
1z
1|
0}
1~
1!!
0$!
0&!
#525
01
#528
#530
11
#535
01
#538
#540
11
#545
01
#548
#550
11
#555
01
#558
#560
11
#565
01
#568
10
#570
11
#575
01
#578
#580
11
#585
01
#588
#590
11
#595
01
#598
#600
11
#605
01
#608
#610
11
#615
01
#618
0$
00
#620
11
0z
0|
1}
0~
0!!
1$!
1&!
#625
01
#628
#630
11
#635
01
#638
#640
11
#645
01
#648
#650
11
#655
01
#658
#660
11
#665
01
#668
1.
1V
0,!
0.!
0/!
#670
11
#675
01
#678
#680
11
#685
01
#688
#690
11
#695
01
#698
#700
11
#705
01
#708
#710
11
#715
01
#718
0-
0.
13
16
09
1:
0;
0=
0?
0A
1B
0H
0I
1K
1L
1P
0Q
0R
0V
1[
0\
1]
1^
1_
0`
1f
1g
0k
1l
0n
1o
1q
1s
#720
11
1*!
1+!
1-!
1.!
1/!
10!
11!
12!
#725
01
#728
#730
11
0y
1z
0}
1~
1!!
0"!
0#!
0%!
#735
01
#738
#740
11
#745
01
#748
#750
11
#755
01
#758
#760
11
#765
01
#768
1%
1W
#770
11
0u
1y
0~
0!!
1#!
0$!
0&!
0(!
#775
01
#778
#780
11
#785
01
#788
#790
11
#795
01
#798
#800
11
#805
01
#808
#810
11
#815
01
#818
0%
0W
#820
11
1u
0y
1~
1!!
0#!
1$!
1&!
1(!
#825
01
#828
#830
11
#835
01
#838
#840
11
#845
01
#848
#850
11
#855
01
#858
#860
11
#865
01
#868
1(
1t
#870
11
#875
01
#878
#880
11
#885
01
#888
#890
11
#895
01
#898
#900
11
#905
01
#908
#910
11
#915
01
#918
1$
0(
0t
#920
11
0u
1v
0z
0{
1|
0!!
1"!
1#!
1%!
0&!
1'!
0(!
#925
01
#928
#930
11
#935
01
#938
#940
11
#945
01
#948
#950
11
#955
01
#958
#960
11
#965
01
#968
0$
#970
11
1u
0v
1z
1{
0|
1!!
0"!
0#!
0%!
1&!
0'!
1(!
